%YAML 1.1
%TAG !u! tag:unity3d.com,2011:
--- !u!114 &11400000
MonoBehaviour:
  m_ObjectHideFlags: 0
  m_CorrespondingSourceObject: {fileID: 0}
  m_PrefabInstance: {fileID: 0}
  m_PrefabAsset: {fileID: 0}
  m_GameObject: {fileID: 0}
  m_Enabled: 1
  m_EditorHideFlags: 0
  m_Script: {fileID: 11500000, guid: 97999f787b8cd39408c06852f4cf7183, type: 3}
  m_Name: Event 23
  m_EditorClassIdentifier: 
  ID: 0
  eventName: pas comm
  hasAlts: 1
  requiresAlt: 0
  altName: 
  audio: {fileID: 8300000, guid: 39a30ee67143a384a920ae23fbb3a2ef, type: 3}
  eventDelay: 2
  next:
  - {fileID: 11400000, guid: a4b84d42933e6c045bd963b665841b20, type: 2}
  - {fileID: 11400000, guid: 080f6a83f22df50488051f8de9e4e80f, type: 2}
  isEnd: 0
