%YAML 1.1
%TAG !u! tag:unity3d.com,2011:
--- !u!114 &11400000
MonoBehaviour:
  m_ObjectHideFlags: 0
  m_CorrespondingSourceObject: {fileID: 0}
  m_PrefabInstance: {fileID: 0}
  m_PrefabAsset: {fileID: 0}
  m_GameObject: {fileID: 0}
  m_Enabled: 1
  m_EditorHideFlags: 0
  m_Script: {fileID: 11500000, guid: 97999f787b8cd39408c06852f4cf7183, type: 3}
  m_Name: Event 22
  m_EditorClassIdentifier: 
  ID: 0
  eventName: regard ours
  hasAlts: 1
  requiresAlt: 0
  altName: 
  audio: {fileID: 0}
  eventDelay: 2
  next:
  - {fileID: 11400000, guid: a4b84d42933e6c045bd963b665841b20, type: 2}
  - {fileID: 11400000, guid: 4fdedd963b6eff943ab2ae88c03aa750, type: 2}
  isEnd: 0
