%YAML 1.1
%TAG !u! tag:unity3d.com,2011:
--- !u!114 &11400000
MonoBehaviour:
  m_ObjectHideFlags: 0
  m_CorrespondingSourceObject: {fileID: 0}
  m_PrefabInstance: {fileID: 0}
  m_PrefabAsset: {fileID: 0}
  m_GameObject: {fileID: 0}
  m_Enabled: 1
  m_EditorHideFlags: 0
  m_Script: {fileID: 11500000, guid: 97999f787b8cd39408c06852f4cf7183, type: 3}
  m_Name: Event 7
  m_EditorClassIdentifier: 
  ID: 0
  eventName: bruler foret
  hasAlts: 0
  requiresAlt: 0
  altName: arbre
  audio: {fileID: 8300000, guid: 737dc9c90360f044cb2f19188f2df471, type: 3}
  eventDelay: 2
  next:
  - {fileID: 11400000, guid: 0f81dcb92464a854ea228c4e449a0037, type: 2}
  isEnd: 0
